{
  "default_page": "index.html",
  "file_dir": "public",
  "custom_api": "biowall_api.lua",
  "custom_api_hook": "_init",
  "modules": {
    "util": "modules/util.lua",
    "debug": "modules/debug.lua",
    "listen": "modules/listen.lua"
  },
  "event_handler": {
    "device": {
      "datapoint": "event_handler/product.lua"
    },
    "timer": {
      "timer": "event_handler/timer.lua"
    }
  },
  "cors": {"origin": ["http://localhost:*"]}
}
